…
``` r
model_path = "./model/model_2017_2018_norm.RDS"

saveRDS(model, file=model_path)

saved_model = readRDS(file=model_path)
```

``` r
slice = ymd_hm('2018-06-01 24:00')
df_y = df_test %>% filter(ds < slice)
df_y
```

    ## # A tibble: 24 × 2
    ##    ds                        y
    ##    <dttm>                <dbl>
    ##  1 2018-06-01 00:00:00  0.0897
    ##  2 2018-06-01 01:00:00 -0.348 
    ##  3 2018-06-01 02:00:00 -0.671 
    ##  4 2018-06-01 03:00:00 -0.863 
    ##  5 2018-06-01 04:00:00 -0.985 
    ##  6 2018-06-01 05:00:00 -0.975 
    ##  7 2018-06-01 06:00:00 -0.711 
    ##  8 2018-06-01 07:00:00 -0.432 
    ##  9 2018-06-01 08:00:00 -0.0958
    ## 10 2018-06-01 09:00:00  0.222 
    ## # … with 14 more rows
…
